Blocks/Block_A/Blatt 04/4.1_mux/testbench.vcd
$date
  Sat Nov  8 23:54:06 2025
$end
$version
  GHDL v0
$end
$timescale
  1 fs
$end
$scope module standard $end
$upscope $end
$scope module std_logic_1164 $end
$upscope $end
$scope module mux81_tb $end
$var reg 3 ! i0_81[2:0] $end
$var reg 3 " i1_81[2:0] $end
$var reg 3 # i2_81[2:0] $end
$var reg 3 $ i3_81[2:0] $end
$var reg 3 % i4_81[2:0] $end
$var reg 3 & i5_81[2:0] $end
$var reg 3 ' i6_81[2:0] $end
$var reg 3 ( i7_81[2:0] $end
$var reg 3 ) sel_81[2:0] $end
$var reg 3 * y_81[2:0] $end
$scope module multiplex $end
$var reg 3 + i0_81[2:0] $end
$var reg 3 , i1_81[2:0] $end
$var reg 3 - i2_81[2:0] $end
$var reg 3 . i3_81[2:0] $end
$var reg 3 / i4_81[2:0] $end
$var reg 3 0 i5_81[2:0] $end
$var reg 3 1 i6_81[2:0] $end
$var reg 3 2 i7_81[2:0] $end
$var reg 3 3 sel_81[2:0] $end
$var reg 3 4 y_81[2:0] $end
$var reg 3 5 mult_1[2:0] $end
$var reg 3 6 mult_2[2:0] $end
$var reg 1 7 not_wire $end
$var reg 3 8 and_wire1[2:0] $end
$var reg 3 9 and_wire2[2:0] $end
$scope module not_output $end
$var reg 1 : input1 $end
$var reg 1 ; not_output $end
$var reg 1 < notgate $end
$upscope $end
$scope module mux1 $end
$var reg 3 = i0[2:0] $end
$var reg 3 > i1[2:0] $end
$var reg 3 ? i2[2:0] $end
$var reg 3 @ i3[2:0] $end
$var reg 2 A sel[1:0] $end
$var reg 3 B y[2:0] $end
$var reg 2 C not_sel[1:0] $end
$var reg 3 D and_1[2:0] $end
$var reg 3 E and_2[2:0] $end
$var reg 3 F and_3[2:0] $end
$var reg 3 G and_4[2:0] $end
$scope module not_assignment(0) $end
$scope module not_output $end
$var reg 1 H input1 $end
$var reg 1 I not_output $end
$var reg 1 J notgate $end
$upscope $end
$upscope $end
$scope module not_assignment(1) $end
$scope module not_output $end
$var reg 1 K input1 $end
$var reg 1 L not_output $end
$var reg 1 M notgate $end
$upscope $end
$upscope $end
$scope module and_gate_assignment(0) $end
$scope module and_output1 $end
$var reg 1 N input1 $end
$var reg 1 O input2 $end
$var reg 1 P input3 $end
$var reg 1 Q and_output $end
$var reg 1 R andgate $end
$upscope $end
$scope module and_output2 $end
$var reg 1 S input1 $end
$var reg 1 T input2 $end
$var reg 1 U input3 $end
$var reg 1 V and_output $end
$var reg 1 W andgate $end
$upscope $end
$scope module and_output3 $end
$var reg 1 X input1 $end
$var reg 1 Y input2 $end
$var reg 1 Z input3 $end
$var reg 1 [ and_output $end
$var reg 1 \ andgate $end
$upscope $end
$scope module and_output4 $end
$var reg 1 ] input1 $end
$var reg 1 ^ input2 $end
$var reg 1 _ input3 $end
$var reg 1 ` and_output $end
$var reg 1 a andgate $end
$upscope $end
$upscope $end
$scope module and_gate_assignment(1) $end
$scope module and_output1 $end
$var reg 1 b input1 $end
$var reg 1 c input2 $end
$var reg 1 d input3 $end
$var reg 1 e and_output $end
$var reg 1 f andgate $end
$upscope $end
$scope module and_output2 $end
$var reg 1 g input1 $end
$var reg 1 h input2 $end
$var reg 1 i input3 $end
$var reg 1 j and_output $end
$var reg 1 k andgate $end
$upscope $end
$scope module and_output3 $end
$var reg 1 l input1 $end
$var reg 1 m input2 $end
$var reg 1 n input3 $end
$var reg 1 o and_output $end
$var reg 1 p andgate $end
$upscope $end
$scope module and_output4 $end
$var reg 1 q input1 $end
$var reg 1 r input2 $end
$var reg 1 s input3 $end
$var reg 1 t and_output $end
$var reg 1 u andgate $end
$upscope $end
$upscope $end
$scope module and_gate_assignment(2) $end
$scope module and_output1 $end
$var reg 1 v input1 $end
$var reg 1 w input2 $end
$var reg 1 x input3 $end
$var reg 1 y and_output $end
$var reg 1 z andgate $end
$upscope $end
$scope module and_output2 $end
$var reg 1 { input1 $end
$var reg 1 | input2 $end
$var reg 1 } input3 $end
$var reg 1 !" and_output $end
$var reg 1 "" andgate $end
$upscope $end
$scope module and_output3 $end
$var reg 1 #" input1 $end
$var reg 1 $" input2 $end
$var reg 1 %" input3 $end
$var reg 1 &" and_output $end
$var reg 1 '" andgate $end
$upscope $end
$scope module and_output4 $end
$var reg 1 (" input1 $end
$var reg 1 )" input2 $end
$var reg 1 *" input3 $end
$var reg 1 +" and_output $end
$var reg 1 ," andgate $end
$upscope $end
$upscope $end
$scope module or_gate_assignment(0) $end
$scope module or_output $end
$var reg 1 -" input1 $end
$var reg 1 ." input2 $end
$var reg 1 /" input3 $end
$var reg 1 0" input4 $end
$var reg 1 1" or_result $end
$var reg 1 2" orgate $end
$upscope $end
$upscope $end
$scope module or_gate_assignment(1) $end
$scope module or_output $end
$var reg 1 3" input1 $end
$var reg 1 4" input2 $end
$var reg 1 5" input3 $end
$var reg 1 6" input4 $end
$var reg 1 7" or_result $end
$var reg 1 8" orgate $end
$upscope $end
$upscope $end
$scope module or_gate_assignment(2) $end
$scope module or_output $end
$var reg 1 9" input1 $end
$var reg 1 :" input2 $end
$var reg 1 ;" input3 $end
$var reg 1 <" input4 $end
$var reg 1 =" or_result $end
$var reg 1 >" orgate $end
$upscope $end
$upscope $end
$upscope $end
$scope module mux2 $end
$var reg 3 ?" i0[2:0] $end
$var reg 3 @" i1[2:0] $end
$var reg 3 A" i2[2:0] $end
$var reg 3 B" i3[2:0] $end
$var reg 2 C" sel[1:0] $end
$var reg 3 D" y[2:0] $end
$var reg 2 E" not_sel[1:0] $end
$var reg 3 F" and_1[2:0] $end
$var reg 3 G" and_2[2:0] $end
$var reg 3 H" and_3[2:0] $end
$var reg 3 I" and_4[2:0] $end
$scope module not_assignment(0) $end
$scope module not_output $end
$var reg 1 J" input1 $end
$var reg 1 K" not_output $end
$var reg 1 L" notgate $end
$upscope $end
$upscope $end
$scope module not_assignment(1) $end
$scope module not_output $end
$var reg 1 M" input1 $end
$var reg 1 N" not_output $end
$var reg 1 O" notgate $end
$upscope $end
$upscope $end
$scope module and_gate_assignment(0) $end
$scope module and_output1 $end
$var reg 1 P" input1 $end
$var reg 1 Q" input2 $end
$var reg 1 R" input3 $end
$var reg 1 S" and_output $end
$var reg 1 T" andgate $end
$upscope $end
$scope module and_output2 $end
$var reg 1 U" input1 $end
$var reg 1 V" input2 $end
$var reg 1 W" input3 $end
$var reg 1 X" and_output $end
$var reg 1 Y" andgate $end
$upscope $end
$scope module and_output3 $end
$var reg 1 Z" input1 $end
$var reg 1 [" input2 $end
$var reg 1 \" input3 $end
$var reg 1 ]" and_output $end
$var reg 1 ^" andgate $end
$upscope $end
$scope module and_output4 $end
$var reg 1 _" input1 $end
$var reg 1 `" input2 $end
$var reg 1 a" input3 $end
$var reg 1 b" and_output $end
$var reg 1 c" andgate $end
$upscope $end
$upscope $end
$scope module and_gate_assignment(1) $end
$scope module and_output1 $end
$var reg 1 d" input1 $end
$var reg 1 e" input2 $end
$var reg 1 f" input3 $end
$var reg 1 g" and_output $end
$var reg 1 h" andgate $end
$upscope $end
$scope module and_output2 $end
$var reg 1 i" input1 $end
$var reg 1 j" input2 $end
$var reg 1 k" input3 $end
$var reg 1 l" and_output $end
$var reg 1 m" andgate $end
$upscope $end
$scope module and_output3 $end
$var reg 1 n" input1 $end
$var reg 1 o" input2 $end
$var reg 1 p" input3 $end
$var reg 1 q" and_output $end
$var reg 1 r" andgate $end
$upscope $end
$scope module and_output4 $end
$var reg 1 s" input1 $end
$var reg 1 t" input2 $end
$var reg 1 u" input3 $end
$var reg 1 v" and_output $end
$var reg 1 w" andgate $end
$upscope $end
$upscope $end
$scope module and_gate_assignment(2) $end
$scope module and_output1 $end
$var reg 1 x" input1 $end
$var reg 1 y" input2 $end
$var reg 1 z" input3 $end
$var reg 1 {" and_output $end
$var reg 1 |" andgate $end
$upscope $end
$scope module and_output2 $end
$var reg 1 }" input1 $end
$var reg 1 !# input2 $end
$var reg 1 "# input3 $end
$var reg 1 ## and_output $end
$var reg 1 $# andgate $end
$upscope $end
$scope module and_output3 $end
$var reg 1 %# input1 $end
$var reg 1 &# input2 $end
$var reg 1 '# input3 $end
$var reg 1 (# and_output $end
$var reg 1 )# andgate $end
$upscope $end
$scope module and_output4 $end
$var reg 1 *# input1 $end
$var reg 1 +# input2 $end
$var reg 1 ,# input3 $end
$var reg 1 -# and_output $end
$var reg 1 .# andgate $end
$upscope $end
$upscope $end
$scope module or_gate_assignment(0) $end
$scope module or_output $end
$var reg 1 /# input1 $end
$var reg 1 0# input2 $end
$var reg 1 1# input3 $end
$var reg 1 2# input4 $end
$var reg 1 3# or_result $end
$var reg 1 4# orgate $end
$upscope $end
$upscope $end
$scope module or_gate_assignment(1) $end
$scope module or_output $end
$var reg 1 5# input1 $end
$var reg 1 6# input2 $end
$var reg 1 7# input3 $end
$var reg 1 8# input4 $end
$var reg 1 9# or_result $end
$var reg 1 :# orgate $end
$upscope $end
$upscope $end
$scope module or_gate_assignment(2) $end
$scope module or_output $end
$var reg 1 ;# input1 $end
$var reg 1 <# input2 $end
$var reg 1 =# input3 $end
$var reg 1 ># input4 $end
$var reg 1 ?# or_result $end
$var reg 1 @# orgate $end
$upscope $end
$upscope $end
$upscope $end
$scope module and_or_gate_assignment(0) $end
$scope module and1 $end
$var reg 1 A# input1 $end
$var reg 1 B# input2 $end
$var reg 1 C# and_result $end
$var reg 1 D# and_gate $end
$upscope $end
$scope module and2 $end
$var reg 1 E# input1 $end
$var reg 1 F# input2 $end
$var reg 1 G# and_result $end
$var reg 1 H# and_gate $end
$upscope $end
$scope module or_output $end
$var reg 1 I# input1 $end
$var reg 1 J# input2 $end
$var reg 1 K# or_result $end
$var reg 1 L# or_gate $end
$upscope $end
$upscope $end
$scope module and_or_gate_assignment(1) $end
$scope module and1 $end
$var reg 1 M# input1 $end
$var reg 1 N# input2 $end
$var reg 1 O# and_result $end
$var reg 1 P# and_gate $end
$upscope $end
$scope module and2 $end
$var reg 1 Q# input1 $end
$var reg 1 R# input2 $end
$var reg 1 S# and_result $end
$var reg 1 T# and_gate $end
$upscope $end
$scope module or_output $end
$var reg 1 U# input1 $end
$var reg 1 V# input2 $end
$var reg 1 W# or_result $end
$var reg 1 X# or_gate $end
$upscope $end
$upscope $end
$scope module and_or_gate_assignment(2) $end
$scope module and1 $end
$var reg 1 Y# input1 $end
$var reg 1 Z# input2 $end
$var reg 1 [# and_result $end
$var reg 1 \# and_gate $end
$upscope $end
$scope module and2 $end
$var reg 1 ]# input1 $end
$var reg 1 ^# input2 $end
$var reg 1 _# and_result $end
$var reg 1 `# and_gate $end
$upscope $end
$scope module or_output $end
$var reg 1 a# input1 $end
$var reg 1 b# input2 $end
$var reg 1 c# or_result $end
$var reg 1 d# or_gate $end
$upscope $end
$upscope $end
$upscope $end
$upscope $end
$enddefinitions $end
#0
b000 !
b001 "
b010 #
b011 $
b100 %
b101 &
b110 '
b111 (
b000 )
b000 *
b000 +
b001 ,
b010 -
b011 .
b100 /
b101 0
b110 1
b111 2
b000 3
b000 4
b000 5
b100 6
17
b000 8
b000 9
0:
1;
1<
b000 =
b001 >
b010 ?
b011 @
b00 A
b000 B
b11 C
b000 D
b000 E
b000 F
b000 G
0H
1I
1J
0K
1L
1M
0N
1O
1P
0Q
0R
1S
1T
0U
0V
0W
0X
0Y
1Z
0[
0\
1]
0^
0_
0`
0a
0b
1c
1d
0e
0f
0g
1h
0i
0j
0k
1l
0m
1n
0o
0p
1q
0r
0s
0t
0u
0v
1w
1x
0y
0z
0{
1|
0}
0!"
0""
0#"
0$"
1%"
0&"
0'"
0("
0)"
0*"
0+"
0,"
0-"
0."
0/"
00"
01"
02"
03"
04"
05"
06"
07"
08"
09"
0:"
0;"
0<"
0="
0>"
b100 ?"
b101 @"
b110 A"
b111 B"
b00 C"
b100 D"
b11 E"
b100 F"
b000 G"
b000 H"
b000 I"
0J"
1K"
1L"
0M"
1N"
1O"
0P"
1Q"
1R"
0S"
0T"
1U"
1V"
0W"
0X"
0Y"
0Z"
0["
1\"
0]"
0^"
1_"
0`"
0a"
0b"
0c"
0d"
1e"
1f"
0g"
0h"
0i"
1j"
0k"
0l"
0m"
1n"
0o"
1p"
0q"
0r"
1s"
0t"
0u"
0v"
0w"
1x"
1y"
1z"
1{"
1|"
1}"
1!#
0"#
0##
0$#
1%#
0&#
1'#
0(#
0)#
1*#
0+#
0,#
0-#
0.#
0/#
00#
01#
02#
03#
04#
05#
06#
07#
08#
09#
0:#
1;#
0<#
0=#
0>#
1?#
1@#
1A#
0B#
0C#
0D#
0E#
0F#
0G#
0H#
0I#
0J#
0K#
0L#
1M#
0N#
0O#
0P#
0Q#
0R#
0S#
0T#
0U#
0V#
0W#
0X#
1Y#
0Z#
0[#
0\#
0]#
1^#
0_#
0`#
0a#
0b#
0c#
0d#
#10000000
b001 )
b001 *
b001 3
b001 4
b001 5
b101 6
b001 8
b01 A
b001 B
b10 C
b001 E
1H
0I
0J
0P
1U
1V
1W
0Z
1_
0d
1i
0n
1s
0x
1}
0%"
1*"
1."
11"
12"
b01 C"
b101 D"
b10 E"
b000 F"
b101 G"
1J"
0K"
0L"
0R"
1W"
1X"
1Y"
0\"
1a"
0f"
1k"
0p"
1u"
0z"
0{"
0|"
1"#
1##
1$#
0'#
1,#
10#
13#
14#
0;#
1<#
1B#
1C#
1D#
1F#
1I#
1K#
1L#
#20000000
b010 )
b010 *
b010 3
b010 4
b010 5
b110 6
b010 8
b10 A
b010 B
b01 C
b000 E
b010 F
0H
1I
1J
1K
0L
0M
0O
1P
0T
0U
0V
0W
1Y
1Z
1^
0_
0c
1d
0h
0i
1m
1n
1o
1p
1r
0s
0w
1x
0|
0}
1$"
1%"
1)"
0*"
0."
01"
02"
15"
17"
18"
b10 C"
b110 D"
b01 E"
b000 G"
b110 H"
0J"
1K"
1L"
1M"
0N"
0O"
0Q"
1R"
0V"
0W"
0X"
0Y"
1["
1\"
1`"
0a"
0e"
1f"
0j"
0k"
1o"
1p"
1q"
1r"
1t"
0u"
0y"
1z"
0!#
0"#
0##
0$#
1&#
1'#
1(#
1)#
1+#
0,#
00#
03#
04#
17#
19#
1:#
0<#
1=#
1?#
1@#
0B#
0C#
0D#
0F#
0I#
0K#
0L#
1N#
1O#
1P#
1R#
1U#
1W#
1X#
1^#
#30000000
b011 )
b011 *
b011 3
b011 4
b011 5
b111 6
b011 8
b11 A
b011 B
b00 C
b000 F
b011 G
1H
0I
0J
0P
1U
0Z
1_
1`
1a
0d
1i
0n
0o
0p
1s
1t
1u
0x
1}
0%"
1*"
10"
11"
12"
05"
16"
b11 C"
b111 D"
b00 E"
b000 H"
b111 I"
1J"
0K"
0L"
0R"
1W"
0\"
1a"
1b"
1c"
0f"
1k"
0p"
0q"
0r"
1u"
1v"
1w"
0z"
1"#
0'#
0(#
0)#
1,#
1-#
1.#
12#
13#
14#
07#
18#
0=#
1>#
1B#
1C#
1D#
1F#
1I#
1K#
1L#
#40000000
b100 )
b100 *
b100 3
b100 4
b000 5
b100 6
07
b000 8
b100 9
1:
0;
0<
b00 A
b000 B
b11 C
b000 G
0H
1I
1J
0K
1L
1M
1O
1P
1T
0U
0Y
1Z
0^
0_
0`
0a
1c
1d
1h
0i
0m
1n
0r
0s
0t
0u
1w
1x
1|
0}
0$"
1%"
0)"
0*"
00"
01"
02"
06"
07"
08"
b00 C"
b100 D"
b11 E"
b100 F"
b000 I"
0J"
1K"
1L"
0M"
1N"
1O"
1Q"
1R"
1V"
0W"
0["
1\"
0`"
0a"
0b"
0c"
1e"
1f"
1j"
0k"
0o"
1p"
0t"
0u"
0v"
0w"
1y"
1z"
1{"
1|"
1!#
0"#
0&#
1'#
0+#
0,#
0-#
0.#
02#
03#
04#
08#
09#
0:#
1;#
0>#
1?#
1@#
0A#
0B#
0C#
0D#
1E#
0F#
0G#
0H#
0I#
0J#
0K#
0L#
0M#
0N#
0O#
0P#
1Q#
0R#
0S#
0T#
0U#
0V#
0W#
0X#
0Y#
1]#
1^#
1_#
1`#
1b#
1c#
1d#
#50000000
b101 )
b101 *
b101 3
b101 4
b001 5
b101 6
b101 9
b01 A
b001 B
b10 C
b001 E
1H
0I
0J
0P
1U
1V
1W
0Z
1_
0d
1i
0n
1s
0x
1}
0%"
1*"
1."
11"
12"
b01 C"
b101 D"
b10 E"
b000 F"
b101 G"
1J"
0K"
0L"
0R"
1W"
1X"
1Y"
0\"
1a"
0f"
1k"
0p"
1u"
0z"
0{"
0|"
1"#
1##
1$#
0'#
1,#
10#
13#
14#
0;#
1<#
1B#
1F#
1G#
1H#
1J#
1K#
1L#
#60000000
b110 )
b110 *
b110 3
b110 4
b010 5
b110 6
b110 9
b10 A
b010 B
b01 C
b000 E
b010 F
0H
1I
1J
1K
0L
0M
0O
1P
0T
0U
0V
0W
1Y
1Z
1^
0_
0c
1d
0h
0i
1m
1n
1o
1p
1r
0s
0w
1x
0|
0}
1$"
1%"
1)"
0*"
0."
01"
02"
15"
17"
18"
b10 C"
b110 D"
b01 E"
b000 G"
b110 H"
0J"
1K"
1L"
1M"
0N"
0O"
0Q"
1R"
0V"
0W"
0X"
0Y"
1["
1\"
1`"
0a"
0e"
1f"
0j"
0k"
1o"
1p"
1q"
1r"
1t"
0u"
0y"
1z"
0!#
0"#
0##
0$#
1&#
1'#
1(#
1)#
1+#
0,#
00#
03#
04#
17#
19#
1:#
0<#
1=#
1?#
1@#
0B#
0F#
0G#
0H#
0J#
0K#
0L#
1N#
1R#
1S#
1T#
1V#
1W#
1X#
1^#
1_#
1`#
1b#
1c#
1d#
#70000000
b111 )
b111 *
b111 3
b111 4
b011 5
b111 6
b111 9
b11 A
b011 B
b00 C
b000 F
b011 G
1H
0I
0J
0P
1U
0Z
1_
1`
1a
0d
1i
0n
0o
0p
1s
1t
1u
0x
1}
0%"
1*"
10"
11"
12"
05"
16"
b11 C"
b111 D"
b00 E"
b000 H"
b111 I"
1J"
0K"
0L"
0R"
1W"
0\"
1a"
1b"
1c"
0f"
1k"
0p"
0q"
0r"
1u"
1v"
1w"
0z"
1"#
0'#
0(#
0)#
1,#
1-#
1.#
12#
13#
14#
07#
18#
0=#
1>#
1B#
1F#
1G#
1H#
1J#
1K#
1L#
