Blocks/Block_B/blatt05-4/5.1/testbench_d_latch.vcd
$date
  Sat Nov 22 12:51:50 2025
$end
$version
  GHDL v0
$end
$timescale
  1 fs
$end
$scope module standard $end
$upscope $end
$scope module std_logic_1164 $end
$upscope $end
$scope module d_latch_tb $end
$var reg 1 ! d $end
$var reg 1 " clk $end
$var reg 1 # q $end
$var reg 1 $ not_q $end
$scope module d_latch_inst $end
$var reg 1 % d $end
$var reg 1 & clk $end
$var reg 1 ' q $end
$var reg 1 ( not_q $end
$var reg 1 ) not_d $end
$var reg 1 * and_upper $end
$var reg 1 + and_lower $end
$scope module not_inst $end
$var reg 1 , input1 $end
$var reg 1 - not_output $end
$var reg 1 . notgate $end
$upscope $ends
$scope module and_upper_inst $end
$var reg 1 / input1 $end
$var reg 1 0 input2 $end
$var reg 1 1 and_result $end
$var reg 1 2 and_gate_signal $end
$upscope $end
$scope module and_lower_inst $end
$var reg 1 3 input1 $end
$var reg 1 4 input2 $end
$var reg 1 5 and_result $end
$var reg 1 6 and_gate_signal $end
$upscope $end
$scope module sr_latch_inst $end
$var reg 1 7 s $end
$var reg 1 8 r $end
$var reg 1 9 q $end
$var reg 1 : not_q $end
$var reg 1 ; tmp1 $end
$var reg 1 < tmp2 $end
$scope module upper_nor $end
$var reg 1 = input1 $end
$var reg 1 > input2 $end
$var reg 1 ? nor_result $end
$var reg 1 @ nor_gate $end
$upscope $end
$scope module lower_or $end
$var reg 1 A input1 $end
$var reg 1 B input2 $end
$var reg 1 C nor_result $end
$var reg 1 D nor_gate $end
$upscope $end
$upscope $end
$upscope $end
$upscope $end
$enddefinitions $end
#0
0!
1"
0#
1$
0%
1&
0'
1(
1)
1*
0+
0,
1-
1.
1/
10
11
12
03
14
05
06
07
18
09
1:
1;
0<
0=
0>
1?
1@
1A
1B
0C
0D
#10000000
0"
0&
0*
00
01
02
04
08
0A
#20000000
1"
1&
1*
10
11
12
14
18
1A
#30000000
1!
0"
1%
0&
0)
0*
1,
0-
0.
0/
00
01
02
13
04
08
0A
#40000000
1"
1#
0$
1&
1'
0(
1+
10
14
15
16
17
19
0:
0;
1<
1=
1>
0?
0@
0B
1C
1D
#50000000
0!
0"
0%
0&
1)
0+
0,
1-
1.
1/
00
03
04
05
06
07
0=
#60000000
#70000000
1"
0#
1$
1&
0'
1(
1*
10
11
12
14
18
09
1:
1;
0<
0>
1?
1@
1A
1B
0C
0D
#80000000
1!
0"
1%
0&
0)
0*
1,
0-
0.
0/
00
01
02
13
04
08
0A
#90000000
1"
1#
0$
1&
1'
0(
1+
10
14
15
16
17
19
0:
0;
1<
1=
1>
0?
0@
0B
1C
1D
