Blocks/Block_B/blatt05-4/5.2/testbench_ps_reset_ff.vcd
$date
  Sat Nov 22 17:38:13 2025
$end
$version
  GHDL v0
$end
$timescale
  1 fs
$end
$scope module standard $end
$upscope $end
$scope module std_logic_1164 $end
$upscope $end
$scope module ps_reset_ff_tb $end
$var reg 1 ! d $end
$var reg 1 " clk $end
$var reg 1 # r $end
$var reg 1 $ q $end
$var reg 1 % not_q $end
$scope module ps_ff_inst $end
$var reg 1 & d $end
$var reg 1 ' clk $end
$var reg 1 ( r $end
$var reg 1 ) q $end
$var reg 1 * not_q $end
$var reg 1 + clk_not $end
$var reg 1 , n_1 $end
$var reg 1 - not_r $end
$var reg 1 . and_1 $end
$var reg 1 / and_2 $end
$scope module reset_inverter $end
$var reg 1 0 input1 $end
$var reg 1 1 not_output $end
$var reg 1 2 notgate $end
$upscope $end
$scope module and_gate_left $end
$var reg 1 3 input1 $end
$var reg 1 4 input2 $end
$var reg 1 5 and_result $end
$var reg 1 6 and_gate_signal $end
$upscope $end
$scope module clk_inverter $end
$var reg 1 7 input1 $end
$var reg 1 8 not_output $end
$var reg 1 9 notgate $end
$upscope $end
$scope module d_latch_left $end
$var reg 1 : d $end
$var reg 1 ; clk $end
$var reg 1 < q $end
$var reg 1 = not_q $end
$var reg 1 > not_d $end
$var reg 1 ? and_upper $end
$var reg 1 @ and_lower $end
$scope module not_inst $end
$var reg 1 A input1 $end
$var reg 1 B not_output $end
$var reg 1 C notgate $end
$upscope $end
$scope module and_upper_inst $end
$var reg 1 D input1 $end
$var reg 1 E input2 $end
$var reg 1 F and_result $end
$var reg 1 G and_gate_signal $end
$upscope $end
$scope module and_lower_inst $end
$var reg 1 H input1 $end
$var reg 1 I input2 $end
$var reg 1 J and_result $end
$var reg 1 K and_gate_signal $end
$upscope $end
$scope module sr_latch_inst $end
$var reg 1 L s $end
$var reg 1 M r $end
$var reg 1 N q $end
$var reg 1 O not_q $end
$var reg 1 P tmp1 $end
$var reg 1 Q tmp2 $end
$scope module upper_nor $end
$var reg 1 R input1 $end
$var reg 1 S input2 $end
$var reg 1 T nor_result $end
$var reg 1 U nor_gate $end
$upscope $end
$scope module lower_or $end
$var reg 1 V input1 $end
$var reg 1 W input2 $end
$var reg 1 X nor_result $end
$var reg 1 Y nor_gate $end
$upscope $end
$upscope $end
$upscope $end
$scope module and_gate_right $end
$var reg 1 Z input1 $end
$var reg 1 [ input2 $end
$var reg 1 \ and_result $end
$var reg 1 ] and_gate_signal $end
$upscope $end
$scope module d_latch_right $end
$var reg 1 ^ d $end
$var reg 1 _ clk $end
$var reg 1 ` q $end
$var reg 1 a not_q $end
$var reg 1 b not_d $end
$var reg 1 c and_upper $end
$var reg 1 d and_lower $end
$scope module not_inst $end
$var reg 1 e input1 $end
$var reg 1 f not_output $end
$var reg 1 g notgate $end
$upscope $end
$scope module and_upper_inst $end
$var reg 1 h input1 $end
$var reg 1 i input2 $end
$var reg 1 j and_result $end
$var reg 1 k and_gate_signal $end
$upscope $end
$scope module and_lower_inst $end
$var reg 1 l input1 $end
$var reg 1 m input2 $end
$var reg 1 n and_result $end
$var reg 1 o and_gate_signal $end
$upscope $end
$scope module sr_latch_inst $end
$var reg 1 p s $end
$var reg 1 q r $end
$var reg 1 r q $end
$var reg 1 s not_q $end
$var reg 1 t tmp1 $end
$var reg 1 u tmp2 $end
$scope module upper_nor $end
$var reg 1 v input1 $end
$var reg 1 w input2 $end
$var reg 1 x nor_result $end
$var reg 1 y nor_gate $end
$upscope $end
$scope module lower_or $end
$var reg 1 z input1 $end
$var reg 1 { input2 $end
$var reg 1 | nor_result $end
$var reg 1 } nor_gate $end
$upscope $end
$upscope $end
$upscope $end
$upscope $end
$upscope $end
$enddefinitions $end
#0
0!
0"
0#
U$
U%
0&
0'
0(
U)
U*
1+
0,
1-
0.
0/
00
11
12
03
14
05
06
07
18
19
0:
1;
0<
1=
1>
1?
0@
0A
1B
1C
1D
1E
1F
1G
0H
1I
0J
0K
0L
1M
0N
1O
1P
0Q
0R
0S
1T
1U
1V
1W
0X
0Y
0Z
1[
0\
0]
0^
0_
U`
Ua
1b
0c
0d
0e
1f
1g
1h
0i
0j
0k
0l
0m
0n
0o
0p
0q
Ur
Us
Ut
Uu
0v
Uw
Ux
Uy
0z
U{
U|
U}
#10000000
1!
1&
1,
1.
1/
13
15
16
1:
1<
0=
0>
0?
1@
1A
0B
0C
0D
0F
0G
1H
1J
1K
1L
0M
1N
0O
0P
1Q
1R
1S
0T
0U
0V
0W
1X
1Y
1Z
1\
1]
1^
0b
1e
0f
0g
0h
1l
#20000000
1"
1$
0%
1'
1)
0*
0+
17
08
09
0;
0@
0E
0I
0J
0K
0L
0R
1_
1`
0a
1d
1i
1m
1n
1o
1p
1r
0s
0t
1u
1v
1w
0x
0y
0{
1|
1}
#30000000
0"
0'
1+
07
18
19
1;
1@
1E
1I
1J
1K
1L
1R
0_
0d
0i
0m
0n
0o
0p
0v
#40000000
0!
0&
0,
0.
0/
03
05
06
0:
0<
1=
1>
1?
0@
0A
1B
1C
1D
1F
1G
0H
0J
0K
0L
1M
0N
1O
1P
0Q
0R
0S
1T
1U
1V
1W
0X
0Y
0Z
0\
0]
0^
1b
0e
1f
1g
1h
0l
#50000000
1"
0$
1%
1'
0)
1*
0+
17
08
09
0;
0?
0E
0F
0G
0I
0M
0V
1_
0`
1a
1c
1i
1j
1k
1m
1q
0r
1s
1t
0u
0w
1x
1y
1z
1{
0|
0}
#60000000
0"
0'
1+
07
18
19
1;
1?
1E
1F
1G
1I
1M
1V
0_
0c
0i
0j
0k
0m
0q
0z
#70000000
1!
1&
1,
1.
1/
13
15
16
1:
1<
0=
0>
0?
1@
1A
0B
0C
0D
0F
0G
1H
1J
1K
1L
0M
1N
0O
0P
1Q
1R
1S
0T
0U
0V
0W
1X
1Y
1Z
1\
1]
1^
0b
1e
0f
0g
0h
1l
#80000000
1"
1$
0%
1'
1)
0*
0+
17
08
09
0;
0@
0E
0I
0J
0K
0L
0R
1_
1`
0a
1d
1i
1m
1n
1o
1p
1r
0s
0t
1u
1v
1w
0x
0y
0{
1|
1}
#90000000
0"
0'
1+
07
18
19
1;
1@
1E
1I
1J
1K
1L
1R
0_
0d
0i
0m
0n
0o
0p
0v
#100000000
1#
1(
0,
0-
0.
0/
10
01
02
04
05
06
0:
0<
1=
1>
1?
0@
0A
1B
1C
1D
1F
1G
0H
0J
0K
0L
1M
0N
1O
1P
0Q
0R
0S
1T
1U
1V
1W
0X
0Y
0Z
0[
0\
0]
0^
1b
0e
1f
1g
1h
0l
#110000000
1"
0$
1%
1'
0)
1*
0+
17
08
09
0;
0?
0E
0F
0G
0I
0M
0V
1_
0`
1a
1c
1i
1j
1k
1m
1q
0r
1s
1t
0u
0w
1x
1y
1z
1{
0|
0}
#120000000
0!
0"
0&
0'
1+
03
07
18
19
1;
1?
1E
1F
1G
1I
1M
1V
0_
0c
0i
0j
0k
0m
0q
0z
#130000000
0#
0(
1-
00
11
12
14
1[
