Blocks/Block_B/blatt05-4/5.2/testbench_ps_ff.vcd
$date
  Sat Nov 22 13:45:24 2025
$end
$version
  GHDL v0
$end
$timescale
  1 fs
$end
$scope module standard $end
$upscope $end
$scope module std_logic_1164 $end
$upscope $end
$scope module ps_ff_tb $end
$var reg 1 ! d $end
$var reg 1 " clk $end
$var reg 1 # q $end
$var reg 1 $ not_q $end
$scope module ps_ff_inst $end
$var reg 1 % d $end
$var reg 1 & clk $end
$var reg 1 ' q $end
$var reg 1 ( not_q $end
$var reg 1 ) clk_not $end
$var reg 1 * n_1 $end
$scope module clk_inverter $end
$var reg 1 + input1 $end
$var reg 1 , not_output $end
$var reg 1 - notgate $end
$upscope $end
$scope module d_latch_left $end
$var reg 1 . d $end
$var reg 1 / clk $end
$var reg 1 0 q $end
$var reg 1 1 not_q $end
$var reg 1 2 not_d $end
$var reg 1 3 and_upper $end
$var reg 1 4 and_lower $end
$scope module not_inst $end
$var reg 1 5 input1 $end
$var reg 1 6 not_output $end
$var reg 1 7 notgate $end
$upscope $end
$scope module and_upper_inst $end
$var reg 1 8 input1 $end
$var reg 1 9 input2 $end
$var reg 1 : and_result $end
$var reg 1 ; and_gate_signal $end
$upscope $end
$scope module and_lower_inst $end
$var reg 1 < input1 $end
$var reg 1 = input2 $end
$var reg 1 > and_result $end
$var reg 1 ? and_gate_signal $end
$upscope $end
$scope module sr_latch_inst $end
$var reg 1 @ s $end
$var reg 1 A r $end
$var reg 1 B q $end
$var reg 1 C not_q $end
$var reg 1 D tmp1 $end
$var reg 1 E tmp2 $end
$scope module upper_nor $end
$var reg 1 F input1 $end
$var reg 1 G input2 $end
$var reg 1 H nor_result $end
$var reg 1 I nor_gate $end
$upscope $end
$scope module lower_or $end
$var reg 1 J input1 $end
$var reg 1 K input2 $end
$var reg 1 L nor_result $end
$var reg 1 M nor_gate $end
$upscope $end
$upscope $end
$upscope $end
$scope module d_latch_right $end
$var reg 1 N d $end
$var reg 1 O clk $end
$var reg 1 P q $end
$var reg 1 Q not_q $end
$var reg 1 R not_d $end
$var reg 1 S and_upper $end
$var reg 1 T and_lower $end
$scope module not_inst $end
$var reg 1 U input1 $end
$var reg 1 V not_output $end
$var reg 1 W notgate $end
$upscope $end
$scope module and_upper_inst $end
$var reg 1 X input1 $end
$var reg 1 Y input2 $end
$var reg 1 Z and_result $end
$var reg 1 [ and_gate_signal $end
$upscope $end
$scope module and_lower_inst $end
$var reg 1 \ input1 $end
$var reg 1 ] input2 $end
$var reg 1 ^ and_result $end
$var reg 1 _ and_gate_signal $end
$upscope $end
$scope module sr_latch_inst $end
$var reg 1 ` s $end
$var reg 1 a r $end
$var reg 1 b q $end
$var reg 1 c not_q $end
$var reg 1 d tmp1 $end
$var reg 1 e tmp2 $end
$scope module upper_nor $end
$var reg 1 f input1 $end
$var reg 1 g input2 $end
$var reg 1 h nor_result $end
$var reg 1 i nor_gate $end
$upscope $end
$scope module lower_or $end
$var reg 1 j input1 $end
$var reg 1 k input2 $end
$var reg 1 l nor_result $end
$var reg 1 m nor_gate $end
$upscope $end
$upscope $end
$upscope $end
$upscope $end
$upscope $end
$enddefinitions $end
#0
0!
0"
U#
U$
0%
0&
U'
U(
1)
0*
0+
1,
1-
0.
1/
00
11
12
13
04
05
16
17
18
19
1:
1;
0<
1=
0>
0?
0@
1A
0B
1C
1D
0E
0F
0G
1H
1I
1J
1K
0L
0M
0N
0O
UP
UQ
1R
0S
0T
0U
1V
1W
1X
0Y
0Z
0[
0\
0]
0^
0_
0`
0a
Ub
Uc
Ud
Ue
0f
Ug
Uh
Ui
0j
Uk
Ul
Um
#10000000
1!
1%
1*
1.
10
01
02
03
14
15
06
07
08
0:
0;
1<
1>
1?
1@
0A
1B
0C
0D
1E
1F
1G
0H
0I
0J
0K
1L
1M
1N
0R
1U
0V
0W
0X
1\
#20000000
1"
1#
0$
1&
1'
0(
0)
1+
0,
0-
0/
04
09
0=
0>
0?
0@
0F
1O
1P
0Q
1T
1Y
1]
1^
1_
1`
1b
0c
0d
1e
1f
1g
0h
0i
0k
1l
1m
#30000000
0"
0&
1)
0+
1,
1-
1/
14
19
1=
1>
1?
1@
1F
0O
0T
0Y
0]
0^
0_
0`
0f
#40000000
0!
0%
0*
0.
00
11
12
13
04
05
16
17
18
1:
1;
0<
0>
0?
0@
1A
0B
1C
1D
0E
0F
0G
1H
1I
1J
1K
0L
0M
0N
1R
0U
1V
1W
1X
0\
#50000000
1"
0#
1$
1&
0'
1(
0)
1+
0,
0-
0/
03
09
0:
0;
0=
0A
0J
1O
0P
1Q
1S
1Y
1Z
1[
1]
1a
0b
1c
1d
0e
0g
1h
1i
1j
1k
0l
0m
#60000000
0"
0&
1)
0+
1,
1-
1/
13
19
1:
1;
1=
1A
1J
0O
0S
0Y
0Z
0[
0]
0a
0j
#70000000
1!
1%
1*
1.
10
01
02
03
14
15
06
07
08
0:
0;
1<
1>
1?
1@
0A
1B
0C
0D
1E
1F
1G
0H
0I
0J
0K
1L
1M
1N
0R
1U
0V
0W
0X
1\
#80000000
1"
1#
0$
1&
1'
0(
0)
1+
0,
0-
0/
04
09
0=
0>
0?
0@
0F
1O
1P
0Q
1T
1Y
1]
1^
1_
1`
1b
0c
0d
1e
1f
1g
0h
0i
0k
1l
1m
#90000000
0"
0&
1)
0+
1,
1-
1/
14
19
1=
1>
1?
1@
1F
0O
0T
0Y
0]
0^
0_
0`
0f
