Blocks/Block_B/blatt06-4/6.2e/testbench.vcd
$date
  Sat Nov 29 21:56:13 2025
$end
$version
  GHDL v0
$end
$timescale
  1 fs
$end
$scope module standard $end
$upscope $end
$scope module std_logic_1164 $end
$upscope $end
$scope module robot_tb $end
$var reg 1 ! alarm $end
$var reg 1 " reset $end
$var reg 1 # sensor $end
$var reg 1 $ clock $end
$var reg 4 % pattern[3:0] $end
$scope module rbt $end
$var reg 4 & pattern[3:0] $end
$var reg 1 ' sensor $end
$var reg 1 ( reset $end
$var reg 1 ) clock $end
$var reg 1 * alarm $end
$var reg 4 + shiftreg[3:0] $end
$var reg 4 , pattern_cmp[3:0] $end
$upscope $end
$upscope $end
$enddefinitions $end
#0
0!
1"
0#
1$
b1101 %
b1101 &
0'
1(
1)
0*
b0000 +
b1011 ,
#10000000
0"
0$
0(
0)
#20000000
1#
1$
1'
1)
b0001 +
#30000000
0$
0)
#40000000
0#
1$
0'
1)
b0010 +
#50000000
0$
0)
#60000000
1#
1$
1'
1)
b0101 +
#70000000
0$
0)
#80000000
1!
1$
1)
1*
b1011 +
#90000000
0$
0)
#100000000
0!
0#
1$
b1011 %
b1011 &
0'
1)
0*
b0110 +
b1101 ,
#110000000
0$
0)
#120000000
1!
1#
1$
1'
1)
1*
b1101 +
#130000000
0$
0)
#140000000
0!
1$
1)
0*
b1011 +
#150000000
0$
0)
#160000000
0#
1$
0'
1)
b0110 +
#170000000
0$
0)
#180000000
1!
1#
1$
1'
1)
1*
b1101 +
